{
  "log" : {
    "version" : "1.2",
    "pages" : [ ],
    "entries" : [ {
      "startedDateTime" : "2019-10-10T12:42:39.010Z",
      "request" : {
        "method" : "POST",
        "url" : "http://localhost:3000/survey",
        "httpVersion" : "",
        "cookies" : [ ],
        "headers" : [ {
          "name" : "Content-Type",
          "value" : "application/json"
        } ],
        "queryString" : [ ],
        "postData" : {
          "mimeType" : "application/json",
          "text" : "{\n\t\"message\": \"yes\",\n\t\"droidId\": \"0c2e32dc-7625-4ef8-ba4b-9ed8c9b66fbe\"\n}",
          "comment" : ""
        },
        "headersSize" : 0,
        "bodySize" : 0,
        "comment" : ""
      },
      "response" : {
        "status" : 200,
        "statusText" : "",
        "httpVersion" : "",
        "cookies" : [ ],
        "headers" : [ {
          "name" : null,
          "value" : "HTTP/1.1 200 OK"
        }, {
          "name" : "ETag",
          "value" : "W/\"1f-atB3BcCOdlJAloTurP6FFfuuT0A\""
        }, {
          "name" : "Connection",
          "value" : "keep-alive"
        }, {
          "name" : "Content-Length",
          "value" : "31"
        }, {
          "name" : "Date",
          "value" : "Thu, 10 Oct 2019 12:42:39 GMT"
        }, {
          "name" : "Content-Type",
          "value" : "application/json; charset=utf-8"
        }, {
          "name" : "X-Powered-By",
          "value" : "Express"
        } ],
        "content" : {
          "size" : 31,
          "mimeType" : "application/json; charset=utf-8",
          "text" : "{\"response\":\"What is sum 8+9?\"}",
          "comment" : ""
        },
        "redirectURL" : "",
        "headersSize" : 169,
        "bodySize" : 31,
        "comment" : ""
      },
      "cache" : { },
      "timings" : {
        "comment" : "",
        "ssl" : -1,
        "blocked" : -1,
        "dns" : -1,
        "connect" : 6,
        "send" : 0,
        "wait" : 0,
        "receive" : 0
      },
      "comment" : "",
      "_katalonRequestInformation" : {
        "name" : "1",
        "testObjectId" : "Object Repository/Droid_answer_yes",
        "harId" : "5e76ee00-6797-41b4-b57e-1e2a2eef8a1c",
        "reportFolder" : null
      },
      "time" : 6
    } ],
    "comment" : ""
  }
}