{
  "log" : {
    "version" : "1.2",
    "pages" : [ ],
    "entries" : [ {
      "startedDateTime" : "2019-10-10T12:42:39.961Z",
      "request" : {
        "method" : "POST",
        "url" : "http://localhost:3000/survey",
        "httpVersion" : "",
        "cookies" : [ ],
        "headers" : [ {
          "name" : "Content-Type",
          "value" : "application/json"
        } ],
        "queryString" : [ ],
        "postData" : {
          "mimeType" : "application/json",
          "text" : "{\n\t\"message\": \"8\",\n\t\"droidId\": \"0c2e32dc-7625-4ef8-ba4b-9ed8c9b66fbe\"\n}",
          "comment" : ""
        },
        "headersSize" : 0,
        "bodySize" : 0,
        "comment" : ""
      },
      "response" : {
        "status" : 500,
        "statusText" : "",
        "httpVersion" : "",
        "cookies" : [ ],
        "headers" : [ {
          "name" : null,
          "value" : "HTTP/1.1 500 Internal Server Error"
        }, {
          "name" : "X-Content-Type-Options",
          "value" : "nosniff"
        }, {
          "name" : "Content-Security-Policy",
          "value" : "default-src 'none'"
        }, {
          "name" : "Connection",
          "value" : "keep-alive"
        }, {
          "name" : "Content-Length",
          "value" : "1523"
        }, {
          "name" : "Date",
          "value" : "Thu, 10 Oct 2019 12:42:39 GMT"
        }, {
          "name" : "Content-Type",
          "value" : "text/html; charset=utf-8"
        }, {
          "name" : "X-Powered-By",
          "value" : "Express"
        } ],
        "content" : {
          "size" : 1523,
          "mimeType" : "text/html; charset=utf-8",
          "text" : "<!DOCTYPE html>\n<html lang=\"en\">\n<head>\n<meta charset=\"utf-8\">\n<title>Error</title>\n</head>\n<body>\n<pre>TypeError: Cannot read property &#39;id&#39; of undefined<br> &nbsp; &nbsp;at id (/Users/oskarp/Documents/Projects IT/droid-expressjs/src/services/SurveyService.js:37:26)<br> &nbsp; &nbsp;at Object.createResponseFromQuestion [as takeSurvey] (/Users/oskarp/Documents/Projects IT/droid-expressjs/src/services/SurveyService.js:21:14)<br> &nbsp; &nbsp;at takeSurvey (/Users/oskarp/Documents/Projects IT/droid-expressjs/src/index.js:31:43)<br> &nbsp; &nbsp;at Layer.handle [as handle_request] (/Users/oskarp/Documents/Projects IT/droid-expressjs/node_modules/express/lib/router/layer.js:95:5)<br> &nbsp; &nbsp;at next (/Users/oskarp/Documents/Projects IT/droid-expressjs/node_modules/express/lib/router/route.js:137:13)<br> &nbsp; &nbsp;at Route.dispatch (/Users/oskarp/Documents/Projects IT/droid-expressjs/node_modules/express/lib/router/route.js:112:3)<br> &nbsp; &nbsp;at Layer.handle [as handle_request] (/Users/oskarp/Documents/Projects IT/droid-expressjs/node_modules/express/lib/router/layer.js:95:5)<br> &nbsp; &nbsp;at /Users/oskarp/Documents/Projects IT/droid-expressjs/node_modules/express/lib/router/index.js:281:22<br> &nbsp; &nbsp;at Function.process_params (/Users/oskarp/Documents/Projects IT/droid-expressjs/node_modules/express/lib/router/index.js:335:12)<br> &nbsp; &nbsp;at next (/Users/oskarp/Documents/Projects IT/droid-expressjs/node_modules/express/lib/router/index.js:275:10)</pre>\n</body>\n</html>\n",
          "comment" : ""
        },
        "redirectURL" : "",
        "headersSize" : 196,
        "bodySize" : 1523,
        "comment" : ""
      },
      "cache" : { },
      "timings" : {
        "comment" : "",
        "ssl" : -1,
        "blocked" : -1,
        "dns" : -1,
        "connect" : 28,
        "send" : 0,
        "wait" : 0,
        "receive" : 0
      },
      "comment" : "",
      "_katalonRequestInformation" : {
        "name" : "4",
        "testObjectId" : "Object Repository/Droid_answer_parametrized",
        "harId" : "aa3a4b2e-e91f-464b-9208-71eeaaf4519e",
        "reportFolder" : null
      },
      "time" : 28
    } ],
    "comment" : ""
  }
}